# 1 "./src/lib/src/Partie3.c"
# 1 "<built-in>"
# 1 "<command-line>"
# 1 "./src/lib/src/Partie3.c"
# 1 "./src/lib/src/../include/Partie3.h" 1



# 1 "./src/lib/src/../include/BmpLib.h" 1





# 1 "c:\\mingw\\lib\\gcc\\mingw32\\8.2.0\\include\\stdbool.h" 1 3 4
# 7 "./src/lib/src/../include/BmpLib.h" 2





typedef struct
{
 int largeurImage;
 int hauteurImage;
 unsigned char *donneesRGB;
} DonneesImageRGB;


void libereDonneesImageRGB(DonneesImageRGB **structure);



DonneesImageRGB *lisBMPRGB(char *nom);




# 28 "./src/lib/src/../include/BmpLib.h" 3 4
_Bool 
# 28 "./src/lib/src/../include/BmpLib.h"
    ecrisBMPRGB_Dans(DonneesImageRGB *donneesImage, char *nom);
# 5 "./src/lib/src/../include/Partie3.h" 2

# 1 "./src/lib/src/../include/Image.h" 1




    typedef struct Image {
        int largeur, hauteur;

        short int **rouge, **vert, **bleu, **gris;
    } Image;
# 18 "./src/lib/src/../include/Image.h"
    Image *alloueImage(int largeur, int hauteur);






    void libereImage(Image **ptrImage);







    Image *chargeImage(char *nom);






    void sauveImage(Image *monImage, char *nom);






    void sauveImageNG(Image *monImage, char *nom);






    Image *dupliqueImage(Image *monImage);







    Image *differenceImage(Image *image1, Image *image2);
# 7 "./src/lib/src/../include/Partie3.h" 2

    typedef struct noeudBinaire {

        short int value;

        int etiquette;
        int start_x;
        int start_y;
        int size;

        struct noeudBinaire *NW;
        struct noeudBinaire *NE;
        struct noeudBinaire *SE;
        struct noeudBinaire *SW;
    }noeudBinaire;
# 32 "./src/lib/src/../include/Partie3.h"
    short int calculCarreNB(int start_x, int start_y, int size, short int **matrix);
# 42 "./src/lib/src/../include/Partie3.h"
    noeudBinaire* creeArbreNB(int start_x, int start_y, int imgSideSize, short int **img);






    int compteFeuille(noeudBinaire* racine);







    void creeImageArbreNB(Image* img, noeudBinaire* rcn, 
# 57 "./src/lib/src/../include/Partie3.h" 3 4
                                                        _Bool 
# 57 "./src/lib/src/../include/Partie3.h"
                                                             etiq);





    void libereArbreBinaire(noeudBinaire *rcn);
# 2 "./src/lib/src/Partie3.c" 2
# 1 "c:\\mingw\\include\\stdlib.h" 1 3
# 34 "c:\\mingw\\include\\stdlib.h" 3
       
# 35 "c:\\mingw\\include\\stdlib.h" 3
# 49 "c:\\mingw\\include\\stdlib.h" 3
# 1 "c:\\mingw\\include\\_mingw.h" 1 3
# 55 "c:\\mingw\\include\\_mingw.h" 3
       
# 56 "c:\\mingw\\include\\_mingw.h" 3
# 66 "c:\\mingw\\include\\_mingw.h" 3
# 1 "c:\\mingw\\include\\msvcrtver.h" 1 3
# 35 "c:\\mingw\\include\\msvcrtver.h" 3
       
# 36 "c:\\mingw\\include\\msvcrtver.h" 3
# 67 "c:\\mingw\\include\\_mingw.h" 2 3






# 1 "c:\\mingw\\include\\w32api.h" 1 3
# 35 "c:\\mingw\\include\\w32api.h" 3
       
# 36 "c:\\mingw\\include\\w32api.h" 3
# 59 "c:\\mingw\\include\\w32api.h" 3
# 1 "c:\\mingw\\include\\sdkddkver.h" 1 3
# 35 "c:\\mingw\\include\\sdkddkver.h" 3
       
# 36 "c:\\mingw\\include\\sdkddkver.h" 3
# 60 "c:\\mingw\\include\\w32api.h" 2 3
# 74 "c:\\mingw\\include\\_mingw.h" 2 3
# 174 "c:\\mingw\\include\\_mingw.h" 3
# 1 "c:\\mingw\\include\\features.h" 1 3
# 39 "c:\\mingw\\include\\features.h" 3
       
# 40 "c:\\mingw\\include\\features.h" 3
# 175 "c:\\mingw\\include\\_mingw.h" 2 3
# 50 "c:\\mingw\\include\\stdlib.h" 2 3





# 1 "c:\\mingw\\lib\\gcc\\mingw32\\8.2.0\\include\\stddef.h" 1 3 4
# 216 "c:\\mingw\\lib\\gcc\\mingw32\\8.2.0\\include\\stddef.h" 3 4

# 216 "c:\\mingw\\lib\\gcc\\mingw32\\8.2.0\\include\\stddef.h" 3 4
typedef unsigned int size_t;
# 328 "c:\\mingw\\lib\\gcc\\mingw32\\8.2.0\\include\\stddef.h" 3 4
typedef short unsigned int wchar_t;
# 56 "c:\\mingw\\include\\stdlib.h" 2 3
# 90 "c:\\mingw\\include\\stdlib.h" 3

# 99 "c:\\mingw\\include\\stdlib.h" 3
extern int _argc;
extern char **_argv;




extern __attribute__((__cdecl__)) __attribute__((__nothrow__)) int *__p___argc(void);
extern __attribute__((__cdecl__)) __attribute__((__nothrow__)) char ***__p___argv(void);
extern __attribute__((__cdecl__)) __attribute__((__nothrow__)) wchar_t ***__p___wargv(void);
# 142 "c:\\mingw\\include\\stdlib.h" 3
   extern __attribute__((__dllimport__)) int __mb_cur_max;
# 166 "c:\\mingw\\include\\stdlib.h" 3
 __attribute__((__cdecl__)) __attribute__((__nothrow__)) int *_errno(void);


 __attribute__((__cdecl__)) __attribute__((__nothrow__)) int *__doserrno(void);







extern __attribute__((__cdecl__)) __attribute__((__nothrow__)) char ***__p__environ(void);

extern __attribute__((__cdecl__)) __attribute__((__nothrow__)) wchar_t ***__p__wenviron(void);
# 202 "c:\\mingw\\include\\stdlib.h" 3
extern __attribute__((__dllimport__)) int _sys_nerr;
# 227 "c:\\mingw\\include\\stdlib.h" 3
extern __attribute__((__dllimport__)) char *_sys_errlist[];
# 238 "c:\\mingw\\include\\stdlib.h" 3
extern __attribute__((__cdecl__)) __attribute__((__nothrow__)) unsigned int *__p__osver(void);
extern __attribute__((__cdecl__)) __attribute__((__nothrow__)) unsigned int *__p__winver(void);
extern __attribute__((__cdecl__)) __attribute__((__nothrow__)) unsigned int *__p__winmajor(void);
extern __attribute__((__cdecl__)) __attribute__((__nothrow__)) unsigned int *__p__winminor(void);
# 250 "c:\\mingw\\include\\stdlib.h" 3
extern __attribute__((__dllimport__)) unsigned int _osver;
extern __attribute__((__dllimport__)) unsigned int _winver;
extern __attribute__((__dllimport__)) unsigned int _winmajor;
extern __attribute__((__dllimport__)) unsigned int _winminor;
# 289 "c:\\mingw\\include\\stdlib.h" 3
 __attribute__((__cdecl__)) __attribute__((__nothrow__)) char **__p__pgmptr(void);


 __attribute__((__cdecl__)) __attribute__((__nothrow__)) wchar_t **__p__wpgmptr(void);
# 325 "c:\\mingw\\include\\stdlib.h" 3
extern __attribute__((__dllimport__)) int _fmode;
# 335 "c:\\mingw\\include\\stdlib.h" 3
 __attribute__((__cdecl__)) __attribute__((__nothrow__)) int atoi (const char *);
 __attribute__((__cdecl__)) __attribute__((__nothrow__)) long atol (const char *);

 __attribute__((__cdecl__)) __attribute__((__nothrow__)) double strtod (const char *, char **);
 __attribute__((__cdecl__)) __attribute__((__nothrow__)) double atof (const char *);


 __attribute__((__cdecl__)) __attribute__((__nothrow__)) double _wtof (const wchar_t *);
 __attribute__((__cdecl__)) __attribute__((__nothrow__)) int _wtoi (const wchar_t *);
 __attribute__((__cdecl__)) __attribute__((__nothrow__)) long _wtol (const wchar_t *);
# 378 "c:\\mingw\\include\\stdlib.h" 3
__attribute__((__cdecl__)) __attribute__((__nothrow__))
float strtof (const char *__restrict__, char **__restrict__);

__attribute__((__cdecl__)) __attribute__((__nothrow__))
long double strtold (const char *__restrict__, char **__restrict__);


 __attribute__((__cdecl__)) __attribute__((__nothrow__)) long strtol (const char *, char **, int);
 __attribute__((__cdecl__)) __attribute__((__nothrow__)) unsigned long strtoul (const char *, char **, int);







 __attribute__((__cdecl__)) __attribute__((__nothrow__))
long wcstol (const wchar_t *, wchar_t **, int);

 __attribute__((__cdecl__)) __attribute__((__nothrow__))
unsigned long wcstoul (const wchar_t *, wchar_t **, int);

 __attribute__((__cdecl__)) __attribute__((__nothrow__)) double wcstod (const wchar_t *, wchar_t **);





__attribute__((__cdecl__)) __attribute__((__nothrow__))
float wcstof (const wchar_t *__restrict__, wchar_t **__restrict__);

__attribute__((__cdecl__)) __attribute__((__nothrow__))
long double wcstold (const wchar_t *__restrict__, wchar_t **__restrict__);
# 451 "c:\\mingw\\include\\stdlib.h" 3
 __attribute__((__cdecl__)) __attribute__((__nothrow__)) wchar_t *_wgetenv (const wchar_t *);
 __attribute__((__cdecl__)) __attribute__((__nothrow__)) int _wputenv (const wchar_t *);

 __attribute__((__cdecl__)) __attribute__((__nothrow__))
void _wsearchenv (const wchar_t *, const wchar_t *, wchar_t *);

 __attribute__((__cdecl__)) __attribute__((__nothrow__)) int _wsystem (const wchar_t *);

 __attribute__((__cdecl__)) __attribute__((__nothrow__))
void _wmakepath (wchar_t *, const wchar_t *, const wchar_t *, const wchar_t *,
    const wchar_t *
  );

 __attribute__((__cdecl__)) __attribute__((__nothrow__))
void _wsplitpath (const wchar_t *, wchar_t *, wchar_t *, wchar_t *, wchar_t *);

 __attribute__((__cdecl__)) __attribute__((__nothrow__))
wchar_t *_wfullpath (wchar_t *, const wchar_t *, size_t);





 __attribute__((__cdecl__)) __attribute__((__nothrow__)) size_t wcstombs (char *, const wchar_t *, size_t);
 __attribute__((__cdecl__)) __attribute__((__nothrow__)) int wctomb (char *, wchar_t);

 __attribute__((__cdecl__)) __attribute__((__nothrow__)) int mblen (const char *, size_t);
 __attribute__((__cdecl__)) __attribute__((__nothrow__)) size_t mbstowcs (wchar_t *, const char *, size_t);
 __attribute__((__cdecl__)) __attribute__((__nothrow__)) int mbtowc (wchar_t *, const char *, size_t);

 __attribute__((__cdecl__)) __attribute__((__nothrow__)) int rand (void);
 __attribute__((__cdecl__)) __attribute__((__nothrow__)) void srand (unsigned int);

 __attribute__((__cdecl__)) __attribute__((__nothrow__)) void abort (void) __attribute__((__noreturn__));
 __attribute__((__cdecl__)) __attribute__((__nothrow__)) void exit (int) __attribute__((__noreturn__));



int __attribute__((__cdecl__)) __attribute__((__nothrow__)) atexit (void (*)(void));

 __attribute__((__cdecl__)) __attribute__((__nothrow__)) int system (const char *);
 __attribute__((__cdecl__)) __attribute__((__nothrow__)) char *getenv (const char *);






# 1 "c:\\mingw\\include\\alloca.h" 1 3
# 43 "c:\\mingw\\include\\alloca.h" 3
       
# 44 "c:\\mingw\\include\\alloca.h" 3
# 54 "c:\\mingw\\include\\alloca.h" 3
# 1 "c:\\mingw\\lib\\gcc\\mingw32\\8.2.0\\include\\stddef.h" 1 3 4
# 55 "c:\\mingw\\include\\alloca.h" 2 3


# 80 "c:\\mingw\\include\\alloca.h" 3
void *alloca( size_t );







void *_alloca( size_t );



# 500 "c:\\mingw\\include\\stdlib.h" 2 3


 __attribute__((__cdecl__)) __attribute__((__nothrow__)) void *calloc (size_t, size_t) __attribute__((__malloc__));
 __attribute__((__cdecl__)) __attribute__((__nothrow__)) void *malloc (size_t) __attribute__((__malloc__));
 __attribute__((__cdecl__)) __attribute__((__nothrow__)) void *realloc (void *, size_t);
 __attribute__((__cdecl__)) __attribute__((__nothrow__)) void free (void *);
# 514 "c:\\mingw\\include\\stdlib.h" 3
__attribute__((__cdecl__)) __attribute__((__nothrow__)) void *__mingw_realloc (void *, size_t);
__attribute__((__cdecl__)) __attribute__((__nothrow__)) void __mingw_free (void *);






 __attribute__((__cdecl__)) void *bsearch
(const void *, const void *, size_t, size_t, int (*)(const void *, const void *));

 __attribute__((__cdecl__)) void qsort
(void *, size_t, size_t, int (*)(const void *, const void *));

 __attribute__((__cdecl__)) __attribute__((__nothrow__)) int abs (int) __attribute__((__const__));
 __attribute__((__cdecl__)) __attribute__((__nothrow__)) long labs (long) __attribute__((__const__));
# 538 "c:\\mingw\\include\\stdlib.h" 3
typedef struct { int quot, rem; } div_t;
typedef struct { long quot, rem; } ldiv_t;

 __attribute__((__cdecl__)) __attribute__((__nothrow__)) div_t div (int, int) __attribute__((__const__));
 __attribute__((__cdecl__)) __attribute__((__nothrow__)) ldiv_t ldiv (long, long) __attribute__((__const__));






 __attribute__((__cdecl__)) __attribute__((__nothrow__)) void _exit (int) __attribute__((__noreturn__));





 __attribute__((__cdecl__)) __attribute__((__nothrow__)) long long _atoi64 (const char *);
# 564 "c:\\mingw\\include\\stdlib.h" 3
 __attribute__((__cdecl__)) __attribute__((__nothrow__)) void _beep (unsigned int, unsigned int) __attribute__((__deprecated__));

 __attribute__((__cdecl__)) __attribute__((__nothrow__)) void _seterrormode (int) __attribute__((__deprecated__));
 __attribute__((__cdecl__)) __attribute__((__nothrow__)) void _sleep (unsigned long) __attribute__((__deprecated__));



typedef int (* _onexit_t)(void);
__attribute__((__cdecl__)) __attribute__((__nothrow__)) _onexit_t _onexit( _onexit_t );

 __attribute__((__cdecl__)) __attribute__((__nothrow__)) int _putenv (const char *);
 __attribute__((__cdecl__)) __attribute__((__nothrow__))
void _searchenv (const char *, const char *, char *);

 __attribute__((__cdecl__)) __attribute__((__nothrow__)) char *_ecvt (double, int, int *, int *);
 __attribute__((__cdecl__)) __attribute__((__nothrow__)) char *_fcvt (double, int, int *, int *);
 __attribute__((__cdecl__)) __attribute__((__nothrow__)) char *_gcvt (double, int, char *);

 __attribute__((__cdecl__)) __attribute__((__nothrow__))
void _makepath (char *, const char *, const char *, const char *, const char *);

 __attribute__((__cdecl__)) __attribute__((__nothrow__))
void _splitpath (const char *, char *, char *, char *, char *);

 __attribute__((__cdecl__)) __attribute__((__nothrow__)) char *_fullpath (char*, const char*, size_t);

 __attribute__((__cdecl__)) __attribute__((__nothrow__)) char *_itoa (int, char *, int);
 __attribute__((__cdecl__)) __attribute__((__nothrow__)) char *_ltoa (long, char *, int);
 __attribute__((__cdecl__)) __attribute__((__nothrow__)) char *_ultoa(unsigned long, char *, int);
 __attribute__((__cdecl__)) __attribute__((__nothrow__)) wchar_t *_itow (int, wchar_t *, int);
 __attribute__((__cdecl__)) __attribute__((__nothrow__)) wchar_t *_ltow (long, wchar_t *, int);
 __attribute__((__cdecl__)) __attribute__((__nothrow__)) wchar_t *_ultow (unsigned long, wchar_t *, int);


 __attribute__((__cdecl__)) __attribute__((__nothrow__)) char* _i64toa (long long, char *, int);
 __attribute__((__cdecl__)) __attribute__((__nothrow__)) char* _ui64toa (unsigned long long, char *, int);
 __attribute__((__cdecl__)) __attribute__((__nothrow__)) long long _wtoi64 (const wchar_t *);
 __attribute__((__cdecl__)) __attribute__((__nothrow__)) wchar_t* _i64tow (long long, wchar_t *, int);
 __attribute__((__cdecl__)) __attribute__((__nothrow__)) wchar_t* _ui64tow (unsigned long long, wchar_t *, int);

 __attribute__((__cdecl__)) __attribute__((__nothrow__)) unsigned int (_rotl)(unsigned int, int) __attribute__((__const__));
 __attribute__((__cdecl__)) __attribute__((__nothrow__)) unsigned int (_rotr)(unsigned int, int) __attribute__((__const__));
 __attribute__((__cdecl__)) __attribute__((__nothrow__)) unsigned long (_lrotl)(unsigned long, int) __attribute__((__const__));
 __attribute__((__cdecl__)) __attribute__((__nothrow__)) unsigned long (_lrotr)(unsigned long, int) __attribute__((__const__));

 __attribute__((__cdecl__)) __attribute__((__nothrow__)) int _set_error_mode (int);
# 647 "c:\\mingw\\include\\stdlib.h" 3
 __attribute__((__cdecl__)) __attribute__((__nothrow__)) int putenv (const char*);
 __attribute__((__cdecl__)) __attribute__((__nothrow__)) void searchenv (const char*, const char*, char*);

 __attribute__((__cdecl__)) __attribute__((__nothrow__)) char* itoa (int, char*, int);
 __attribute__((__cdecl__)) __attribute__((__nothrow__)) char* ltoa (long, char*, int);


 __attribute__((__cdecl__)) __attribute__((__nothrow__)) char* ecvt (double, int, int*, int*);
 __attribute__((__cdecl__)) __attribute__((__nothrow__)) char* fcvt (double, int, int*, int*);
 __attribute__((__cdecl__)) __attribute__((__nothrow__)) char* gcvt (double, int, char*);
# 668 "c:\\mingw\\include\\stdlib.h" 3
__attribute__((__cdecl__)) __attribute__((__nothrow__)) void _Exit(int) __attribute__((__noreturn__));






typedef struct { long long quot, rem; } lldiv_t;
__attribute__((__cdecl__)) __attribute__((__nothrow__)) lldiv_t lldiv (long long, long long) __attribute__((__const__));

__attribute__((__cdecl__)) __attribute__((__nothrow__)) long long llabs (long long);
# 689 "c:\\mingw\\include\\stdlib.h" 3
__attribute__((__cdecl__)) __attribute__((__nothrow__))
long long strtoll (const char *__restrict__, char **__restrict, int);

__attribute__((__cdecl__)) __attribute__((__nothrow__))
unsigned long long strtoull (const char *__restrict__, char **__restrict__, int);





__attribute__((__cdecl__)) __attribute__((__nothrow__)) long long atoll (const char *);
# 745 "c:\\mingw\\include\\stdlib.h" 3
__attribute__((__cdecl__)) __attribute__((__nothrow__)) __attribute__((__deprecated__)) long long wtoll (const wchar_t *);
__attribute__((__cdecl__)) __attribute__((__nothrow__)) __attribute__((__deprecated__)) char *lltoa (long long, char *, int);
__attribute__((__cdecl__)) __attribute__((__nothrow__)) __attribute__((__deprecated__)) char *ulltoa (unsigned long long , char *, int);
__attribute__((__cdecl__)) __attribute__((__nothrow__)) __attribute__((__deprecated__)) wchar_t *lltow (long long, wchar_t *, int);
__attribute__((__cdecl__)) __attribute__((__nothrow__)) __attribute__((__deprecated__)) wchar_t *ulltow (unsigned long long, wchar_t *, int);
# 785 "c:\\mingw\\include\\stdlib.h" 3
__attribute__((__cdecl__)) __attribute__((__nothrow__)) int mkstemp (char *);
__attribute__((__cdecl__)) __attribute__((__nothrow__)) int __mingw_mkstemp (int, char *);
# 827 "c:\\mingw\\include\\stdlib.h" 3
extern inline __attribute__((__gnu_inline__)) __attribute__((__always_inline__))
__attribute__((__cdecl__)) __attribute__((__nothrow__)) int mkstemp (char *__filename_template)
{ return __mingw_mkstemp( 0, __filename_template ); }
# 838 "c:\\mingw\\include\\stdlib.h" 3
__attribute__((__cdecl__)) __attribute__((__nothrow__)) char *mkdtemp (char *);
__attribute__((__cdecl__)) __attribute__((__nothrow__)) char *__mingw_mkdtemp (char *);

extern inline __attribute__((__gnu_inline__)) __attribute__((__always_inline__))
__attribute__((__cdecl__)) __attribute__((__nothrow__)) char *mkdtemp (char *__dirname_template)
{ return __mingw_mkdtemp( __dirname_template ); }






__attribute__((__cdecl__)) __attribute__((__nothrow__)) int setenv( const char *, const char *, int );
__attribute__((__cdecl__)) __attribute__((__nothrow__)) int unsetenv( const char * );

__attribute__((__cdecl__)) __attribute__((__nothrow__)) int __mingw_setenv( const char *, const char *, int );

extern inline __attribute__((__gnu_inline__)) __attribute__((__always_inline__))
__attribute__((__cdecl__)) __attribute__((__nothrow__)) int setenv( const char *__n, const char *__v, int __f )
{ return __mingw_setenv( __n, __v, __f ); }

extern inline __attribute__((__gnu_inline__)) __attribute__((__always_inline__))
__attribute__((__cdecl__)) __attribute__((__nothrow__)) int unsetenv( const char *__name )
{ return __mingw_setenv( __name, ((void *)0), 1 ); }





# 3 "./src/lib/src/Partie3.c" 2
# 1 "c:\\mingw\\include\\stdio.h" 1 3
# 38 "c:\\mingw\\include\\stdio.h" 3
       
# 39 "c:\\mingw\\include\\stdio.h" 3
# 68 "c:\\mingw\\include\\stdio.h" 3
# 1 "c:\\mingw\\lib\\gcc\\mingw32\\8.2.0\\include\\stddef.h" 1 3 4
# 357 "c:\\mingw\\lib\\gcc\\mingw32\\8.2.0\\include\\stddef.h" 3 4
typedef short unsigned int wint_t;
# 69 "c:\\mingw\\include\\stdio.h" 2 3
# 95 "c:\\mingw\\include\\stdio.h" 3
# 1 "c:\\mingw\\include\\sys/types.h" 1 3
# 34 "c:\\mingw\\include\\sys/types.h" 3
       
# 35 "c:\\mingw\\include\\sys/types.h" 3
# 62 "c:\\mingw\\include\\sys/types.h" 3
  typedef long __off32_t;




  typedef __off32_t _off_t;







  typedef _off_t off_t;
# 91 "c:\\mingw\\include\\sys/types.h" 3
  typedef long long __off64_t;






  typedef __off64_t off64_t;
# 115 "c:\\mingw\\include\\sys/types.h" 3
  typedef int _ssize_t;







  typedef _ssize_t ssize_t;
# 96 "c:\\mingw\\include\\stdio.h" 2 3






# 1 "c:\\mingw\\lib\\gcc\\mingw32\\8.2.0\\include\\stdarg.h" 1 3 4
# 40 "c:\\mingw\\lib\\gcc\\mingw32\\8.2.0\\include\\stdarg.h" 3 4
typedef __builtin_va_list __gnuc_va_list;
# 103 "c:\\mingw\\include\\stdio.h" 2 3
# 210 "c:\\mingw\\include\\stdio.h" 3
typedef struct _iobuf
{
  char *_ptr;
  int _cnt;
  char *_base;
  int _flag;
  int _file;
  int _charbuf;
  int _bufsiz;
  char *_tmpfname;
} FILE;
# 239 "c:\\mingw\\include\\stdio.h" 3
extern __attribute__((__dllimport__)) FILE _iob[];
# 252 "c:\\mingw\\include\\stdio.h" 3








 __attribute__((__cdecl__)) __attribute__((__nothrow__)) FILE * fopen (const char *, const char *);
 __attribute__((__cdecl__)) __attribute__((__nothrow__)) FILE * freopen (const char *, const char *, FILE *);
 __attribute__((__cdecl__)) __attribute__((__nothrow__)) int fflush (FILE *);
 __attribute__((__cdecl__)) __attribute__((__nothrow__)) int fclose (FILE *);






 __attribute__((__cdecl__)) __attribute__((__nothrow__)) int remove (const char *);
 __attribute__((__cdecl__)) __attribute__((__nothrow__)) int rename (const char *, const char *);
 __attribute__((__cdecl__)) __attribute__((__nothrow__)) FILE * tmpfile (void);
 __attribute__((__cdecl__)) __attribute__((__nothrow__)) char * tmpnam (char *);


 __attribute__((__cdecl__)) __attribute__((__nothrow__)) char *_tempnam (const char *, const char *);
 __attribute__((__cdecl__)) __attribute__((__nothrow__)) int _rmtmp (void);
 __attribute__((__cdecl__)) __attribute__((__nothrow__)) int _unlink (const char *);
# 289 "c:\\mingw\\include\\stdio.h" 3
 __attribute__((__cdecl__)) __attribute__((__nothrow__)) char * tempnam (const char *, const char *);
 __attribute__((__cdecl__)) __attribute__((__nothrow__)) int rmtmp (void);
 __attribute__((__cdecl__)) __attribute__((__nothrow__)) int unlink (const char *);



 __attribute__((__cdecl__)) __attribute__((__nothrow__)) int setvbuf (FILE *, char *, int, size_t);
 __attribute__((__cdecl__)) __attribute__((__nothrow__)) void setbuf (FILE *, char *);
# 342 "c:\\mingw\\include\\stdio.h" 3
extern int __attribute__((__cdecl__)) __attribute__((__nothrow__)) __attribute__((__format__(__mingw_printf__,2,3))) __mingw_fprintf(FILE*, const char*, ...);
extern int __attribute__((__cdecl__)) __attribute__((__nothrow__)) __attribute__((__format__(__mingw_printf__,1,2))) __mingw_printf(const char*, ...);
extern int __attribute__((__cdecl__)) __attribute__((__nothrow__)) __attribute__((__format__(__mingw_printf__,2,3))) __mingw_sprintf(char*, const char*, ...);
extern int __attribute__((__cdecl__)) __attribute__((__nothrow__)) __attribute__((__format__(__mingw_printf__,3,4))) __mingw_snprintf(char*, size_t, const char*, ...);
extern int __attribute__((__cdecl__)) __attribute__((__nothrow__)) __attribute__((__format__(__mingw_printf__,2,0))) __mingw_vfprintf(FILE*, const char*, __builtin_va_list);
extern int __attribute__((__cdecl__)) __attribute__((__nothrow__)) __attribute__((__format__(__mingw_printf__,1,0))) __mingw_vprintf(const char*, __builtin_va_list);
extern int __attribute__((__cdecl__)) __attribute__((__nothrow__)) __attribute__((__format__(__mingw_printf__,2,0))) __mingw_vsprintf(char*, const char*, __builtin_va_list);
extern int __attribute__((__cdecl__)) __attribute__((__nothrow__)) __attribute__((__format__(__mingw_printf__,3,0))) __mingw_vsnprintf(char*, size_t, const char*, __builtin_va_list);
# 376 "c:\\mingw\\include\\stdio.h" 3
extern unsigned int _mingw_output_format_control( unsigned int, unsigned int );
# 461 "c:\\mingw\\include\\stdio.h" 3
 __attribute__((__cdecl__)) __attribute__((__nothrow__)) int fprintf (FILE *, const char *, ...);
 __attribute__((__cdecl__)) __attribute__((__nothrow__)) int printf (const char *, ...);
 __attribute__((__cdecl__)) __attribute__((__nothrow__)) int sprintf (char *, const char *, ...);
 __attribute__((__cdecl__)) __attribute__((__nothrow__)) int vfprintf (FILE *, const char *, __builtin_va_list);
 __attribute__((__cdecl__)) __attribute__((__nothrow__)) int vprintf (const char *, __builtin_va_list);
 __attribute__((__cdecl__)) __attribute__((__nothrow__)) int vsprintf (char *, const char *, __builtin_va_list);
# 479 "c:\\mingw\\include\\stdio.h" 3
static __inline__ __attribute__((__cdecl__)) __attribute__((__nothrow__))
int snprintf (char *__buf, size_t __len, const char *__format, ...)
{
  register int __retval;
  __builtin_va_list __local_argv; __builtin_va_start( __local_argv, __format );
  __retval = __mingw_vsnprintf( __buf, __len, __format, __local_argv );
  __builtin_va_end( __local_argv );
  return __retval;
}

static __inline__ __attribute__((__cdecl__)) __attribute__((__nothrow__))
int vsnprintf (char *__buf, size_t __len, const char *__format, __builtin_va_list __local_argv)
{
  return __mingw_vsnprintf( __buf, __len, __format, __local_argv );
}
# 513 "c:\\mingw\\include\\stdio.h" 3
 int __attribute__((__cdecl__)) __attribute__((__nothrow__)) __attribute__((__format__(__ms_printf__,2,3))) __msvcrt_fprintf(FILE *, const char *, ...);
 int __attribute__((__cdecl__)) __attribute__((__nothrow__)) __attribute__((__format__(__ms_printf__,1,2))) __msvcrt_printf(const char *, ...);
 int __attribute__((__cdecl__)) __attribute__((__nothrow__)) __attribute__((__format__(__ms_printf__,2,3))) __msvcrt_sprintf(char *, const char *, ...);
 int __attribute__((__cdecl__)) __attribute__((__nothrow__)) __attribute__((__format__(__ms_printf__,2,0))) __msvcrt_vfprintf(FILE *, const char *, __builtin_va_list);
 int __attribute__((__cdecl__)) __attribute__((__nothrow__)) __attribute__((__format__(__ms_printf__,1,0))) __msvcrt_vprintf(const char *, __builtin_va_list);
 int __attribute__((__cdecl__)) __attribute__((__nothrow__)) __attribute__((__format__(__ms_printf__,2,0))) __msvcrt_vsprintf(char *, const char *, __builtin_va_list);






 __attribute__((__cdecl__)) __attribute__((__nothrow__)) int _snprintf (char *, size_t, const char *, ...);
 __attribute__((__cdecl__)) __attribute__((__nothrow__)) int _vsnprintf (char *, size_t, const char *, __builtin_va_list);
 __attribute__((__cdecl__)) __attribute__((__nothrow__)) int _vscprintf (const char *, __builtin_va_list);
# 536 "c:\\mingw\\include\\stdio.h" 3
__attribute__((__cdecl__)) __attribute__((__nothrow__)) __attribute__((__format__(__mingw_printf__,3,4)))
int snprintf (char *, size_t, const char *, ...);

__attribute__((__cdecl__)) __attribute__((__nothrow__)) __attribute__((__format__(__mingw_printf__,3,0)))
int vsnprintf (char *, size_t, const char *, __builtin_va_list);

__attribute__((__cdecl__)) __attribute__((__nothrow__))
int vscanf (const char * __restrict__, __builtin_va_list);

__attribute__((__cdecl__)) __attribute__((__nothrow__))
int vfscanf (FILE * __restrict__, const char * __restrict__, __builtin_va_list);

__attribute__((__cdecl__)) __attribute__((__nothrow__))
int vsscanf (const char * __restrict__, const char * __restrict__, __builtin_va_list);
# 679 "c:\\mingw\\include\\stdio.h" 3
__attribute__((__cdecl__)) __attribute__((__nothrow__)) ssize_t
getdelim (char ** __restrict__, size_t * __restrict__, int, FILE * __restrict__);

__attribute__((__cdecl__)) __attribute__((__nothrow__)) ssize_t
getline (char ** __restrict__, size_t * __restrict__, FILE * __restrict__);
# 699 "c:\\mingw\\include\\stdio.h" 3
 __attribute__((__cdecl__)) __attribute__((__nothrow__)) int fscanf (FILE *, const char *, ...);
 __attribute__((__cdecl__)) __attribute__((__nothrow__)) int scanf (const char *, ...);
 __attribute__((__cdecl__)) __attribute__((__nothrow__)) int sscanf (const char *, const char *, ...);



 __attribute__((__cdecl__)) __attribute__((__nothrow__)) int fgetc (FILE *);
 __attribute__((__cdecl__)) __attribute__((__nothrow__)) char * fgets (char *, int, FILE *);
 __attribute__((__cdecl__)) __attribute__((__nothrow__)) int fputc (int, FILE *);
 __attribute__((__cdecl__)) __attribute__((__nothrow__)) int fputs (const char *, FILE *);
 __attribute__((__cdecl__)) __attribute__((__nothrow__)) char * gets (char *);
 __attribute__((__cdecl__)) __attribute__((__nothrow__)) int puts (const char *);
 __attribute__((__cdecl__)) __attribute__((__nothrow__)) int ungetc (int, FILE *);
# 720 "c:\\mingw\\include\\stdio.h" 3
 __attribute__((__cdecl__)) __attribute__((__nothrow__)) int _filbuf (FILE *);
 __attribute__((__cdecl__)) __attribute__((__nothrow__)) int _flsbuf (int, FILE *);



extern inline __attribute__((__gnu_inline__)) __attribute__((__cdecl__)) __attribute__((__nothrow__)) int getc (FILE *);
extern inline __attribute__((__gnu_inline__)) __attribute__((__cdecl__)) __attribute__((__nothrow__)) int getc (FILE * __F)
{
  return (--__F->_cnt >= 0)
    ? (int) (unsigned char) *__F->_ptr++
    : _filbuf (__F);
}

extern inline __attribute__((__gnu_inline__)) __attribute__((__cdecl__)) __attribute__((__nothrow__)) int putc (int, FILE *);
extern inline __attribute__((__gnu_inline__)) __attribute__((__cdecl__)) __attribute__((__nothrow__)) int putc (int __c, FILE * __F)
{
  return (--__F->_cnt >= 0)
    ? (int) (unsigned char) (*__F->_ptr++ = (char)__c)
    : _flsbuf (__c, __F);
}

extern inline __attribute__((__gnu_inline__)) __attribute__((__cdecl__)) __attribute__((__nothrow__)) int getchar (void);
extern inline __attribute__((__gnu_inline__)) __attribute__((__cdecl__)) __attribute__((__nothrow__)) int getchar (void)
{
  return (--(&_iob[0])->_cnt >= 0)
    ? (int) (unsigned char) *(&_iob[0])->_ptr++
    : _filbuf ((&_iob[0]));
}

extern inline __attribute__((__gnu_inline__)) __attribute__((__cdecl__)) __attribute__((__nothrow__)) int putchar(int);
extern inline __attribute__((__gnu_inline__)) __attribute__((__cdecl__)) __attribute__((__nothrow__)) int putchar(int __c)
{
  return (--(&_iob[1])->_cnt >= 0)
    ? (int) (unsigned char) (*(&_iob[1])->_ptr++ = (char)__c)
    : _flsbuf (__c, (&_iob[1]));}
# 767 "c:\\mingw\\include\\stdio.h" 3
 __attribute__((__cdecl__)) __attribute__((__nothrow__)) size_t fread (void *, size_t, size_t, FILE *);
 __attribute__((__cdecl__)) __attribute__((__nothrow__)) size_t fwrite (const void *, size_t, size_t, FILE *);



 __attribute__((__cdecl__)) __attribute__((__nothrow__)) int fseek (FILE *, long, int);
 __attribute__((__cdecl__)) __attribute__((__nothrow__)) long ftell (FILE *);
 __attribute__((__cdecl__)) __attribute__((__nothrow__)) void rewind (FILE *);
# 821 "c:\\mingw\\include\\stdio.h" 3
typedef union { long long __value; __off64_t __offset; } fpos_t;




 __attribute__((__cdecl__)) __attribute__((__nothrow__)) int fgetpos (FILE *, fpos_t *);
 __attribute__((__cdecl__)) __attribute__((__nothrow__)) int fsetpos (FILE *, const fpos_t *);
# 862 "c:\\mingw\\include\\stdio.h" 3
int __attribute__((__cdecl__)) __attribute__((__nothrow__)) __mingw_fseeki64 (FILE *, long long, int);
extern inline __attribute__((__gnu_inline__)) __attribute__((__always_inline__)) __attribute__((__cdecl__)) __attribute__((__nothrow__)) int _fseeki64 (FILE *__f, long long __o, int __w)
{ return __mingw_fseeki64 (__f, __o, __w); }


long long __attribute__((__cdecl__)) __attribute__((__nothrow__)) __mingw_ftelli64 (FILE *);
extern inline __attribute__((__gnu_inline__)) __attribute__((__always_inline__)) __attribute__((__cdecl__)) long long __attribute__((__nothrow__)) _ftelli64 (FILE *__file )
{ return __mingw_ftelli64 (__file); }





 __attribute__((__cdecl__)) __attribute__((__nothrow__)) int feof (FILE *);
 __attribute__((__cdecl__)) __attribute__((__nothrow__)) int ferror (FILE *);
# 886 "c:\\mingw\\include\\stdio.h" 3
 __attribute__((__cdecl__)) __attribute__((__nothrow__)) void clearerr (FILE *);
 __attribute__((__cdecl__)) __attribute__((__nothrow__)) void perror (const char *);





 __attribute__((__cdecl__)) __attribute__((__nothrow__)) FILE * _popen (const char *, const char *);
 __attribute__((__cdecl__)) __attribute__((__nothrow__)) int _pclose (FILE *);


 __attribute__((__cdecl__)) __attribute__((__nothrow__)) FILE * popen (const char *, const char *);
 __attribute__((__cdecl__)) __attribute__((__nothrow__)) int pclose (FILE *);




 __attribute__((__cdecl__)) __attribute__((__nothrow__)) int _flushall (void);
 __attribute__((__cdecl__)) __attribute__((__nothrow__)) int _fgetchar (void);
 __attribute__((__cdecl__)) __attribute__((__nothrow__)) int _fputchar (int);
 __attribute__((__cdecl__)) __attribute__((__nothrow__)) FILE * _fdopen (int, const char *);
 __attribute__((__cdecl__)) __attribute__((__nothrow__)) int _fileno (FILE *);
 __attribute__((__cdecl__)) __attribute__((__nothrow__)) int _fcloseall (void);
 __attribute__((__cdecl__)) __attribute__((__nothrow__)) FILE * _fsopen (const char *, const char *, int);

 __attribute__((__cdecl__)) __attribute__((__nothrow__)) int _getmaxstdio (void);
 __attribute__((__cdecl__)) __attribute__((__nothrow__)) int _setmaxstdio (int);
# 936 "c:\\mingw\\include\\stdio.h" 3
unsigned int __attribute__((__cdecl__)) __mingw_get_output_format (void);
unsigned int __attribute__((__cdecl__)) __mingw_set_output_format (unsigned int);







int __attribute__((__cdecl__)) __mingw_get_printf_count_output (void);
int __attribute__((__cdecl__)) __mingw_set_printf_count_output (int);
# 962 "c:\\mingw\\include\\stdio.h" 3
extern inline __attribute__((__gnu_inline__)) __attribute__((__always_inline__)) unsigned int __attribute__((__cdecl__)) _get_output_format (void)
{ return __mingw_get_output_format (); }

extern inline __attribute__((__gnu_inline__)) __attribute__((__always_inline__)) unsigned int __attribute__((__cdecl__)) _set_output_format (unsigned int __style)
{ return __mingw_set_output_format (__style); }
# 987 "c:\\mingw\\include\\stdio.h" 3
extern inline __attribute__((__gnu_inline__)) __attribute__((__always_inline__)) int __attribute__((__cdecl__)) _get_printf_count_output (void)
{ return 0 ? 1 : __mingw_get_printf_count_output (); }

extern inline __attribute__((__gnu_inline__)) __attribute__((__always_inline__)) int __attribute__((__cdecl__)) _set_printf_count_output (int __mode)
{ return 0 ? 1 : __mingw_set_printf_count_output (__mode); }



 __attribute__((__cdecl__)) __attribute__((__nothrow__)) int fgetchar (void);
 __attribute__((__cdecl__)) __attribute__((__nothrow__)) int fputchar (int);
 __attribute__((__cdecl__)) __attribute__((__nothrow__)) FILE * fdopen (int, const char *);
 __attribute__((__cdecl__)) __attribute__((__nothrow__)) int fileno (FILE *);
# 1007 "c:\\mingw\\include\\stdio.h" 3
extern inline __attribute__((__gnu_inline__)) __attribute__((__always_inline__)) FILE * __attribute__((__cdecl__)) __attribute__((__nothrow__)) fopen64 (const char *, const char *);
extern inline __attribute__((__gnu_inline__)) __attribute__((__always_inline__))
FILE * __attribute__((__cdecl__)) __attribute__((__nothrow__)) fopen64 (const char * filename, const char * mode)
{ return fopen (filename, mode); }

int __attribute__((__cdecl__)) __attribute__((__nothrow__)) fseeko64 (FILE *, __off64_t, int);
# 1028 "c:\\mingw\\include\\stdio.h" 3
__off64_t __attribute__((__cdecl__)) __attribute__((__nothrow__)) ftello64 (FILE *);
# 1041 "c:\\mingw\\include\\stdio.h" 3
 __attribute__((__cdecl__)) __attribute__((__nothrow__)) int fwprintf (FILE *, const wchar_t *, ...);
 __attribute__((__cdecl__)) __attribute__((__nothrow__)) int wprintf (const wchar_t *, ...);
 __attribute__((__cdecl__)) __attribute__((__nothrow__)) int vfwprintf (FILE *, const wchar_t *, __builtin_va_list);
 __attribute__((__cdecl__)) __attribute__((__nothrow__)) int vwprintf (const wchar_t *, __builtin_va_list);
 __attribute__((__cdecl__)) __attribute__((__nothrow__)) int _snwprintf (wchar_t *, size_t, const wchar_t *, ...);
 __attribute__((__cdecl__)) __attribute__((__nothrow__)) int _vscwprintf (const wchar_t *, __builtin_va_list);
 __attribute__((__cdecl__)) __attribute__((__nothrow__)) int _vsnwprintf (wchar_t *, size_t, const wchar_t *, __builtin_va_list);
 __attribute__((__cdecl__)) __attribute__((__nothrow__)) int fwscanf (FILE *, const wchar_t *, ...);
 __attribute__((__cdecl__)) __attribute__((__nothrow__)) int wscanf (const wchar_t *, ...);
 __attribute__((__cdecl__)) __attribute__((__nothrow__)) int swscanf (const wchar_t *, const wchar_t *, ...);
 __attribute__((__cdecl__)) __attribute__((__nothrow__)) wint_t fgetwc (FILE *);
 __attribute__((__cdecl__)) __attribute__((__nothrow__)) wint_t fputwc (wchar_t, FILE *);
 __attribute__((__cdecl__)) __attribute__((__nothrow__)) wint_t ungetwc (wchar_t, FILE *);




 __attribute__((__cdecl__)) __attribute__((__nothrow__)) int swprintf (wchar_t *, const wchar_t *, ...);
 __attribute__((__cdecl__)) __attribute__((__nothrow__)) int vswprintf (wchar_t *, const wchar_t *, __builtin_va_list);



 __attribute__((__cdecl__)) __attribute__((__nothrow__)) wchar_t * fgetws (wchar_t *, int, FILE *);
 __attribute__((__cdecl__)) __attribute__((__nothrow__)) int fputws (const wchar_t *, FILE *);
 __attribute__((__cdecl__)) __attribute__((__nothrow__)) wint_t getwc (FILE *);
 __attribute__((__cdecl__)) __attribute__((__nothrow__)) wint_t getwchar (void);
 __attribute__((__cdecl__)) __attribute__((__nothrow__)) wint_t putwc (wint_t, FILE *);
 __attribute__((__cdecl__)) __attribute__((__nothrow__)) wint_t putwchar (wint_t);


 __attribute__((__cdecl__)) __attribute__((__nothrow__)) wchar_t * _getws (wchar_t *);
 __attribute__((__cdecl__)) __attribute__((__nothrow__)) int _putws (const wchar_t *);
 __attribute__((__cdecl__)) __attribute__((__nothrow__)) FILE * _wfdopen(int, const wchar_t *);
 __attribute__((__cdecl__)) __attribute__((__nothrow__)) FILE * _wfopen (const wchar_t *, const wchar_t *);
 __attribute__((__cdecl__)) __attribute__((__nothrow__)) FILE * _wfreopen (const wchar_t *, const wchar_t *, FILE *);
 __attribute__((__cdecl__)) __attribute__((__nothrow__)) FILE * _wfsopen (const wchar_t *, const wchar_t *, int);
 __attribute__((__cdecl__)) __attribute__((__nothrow__)) wchar_t * _wtmpnam (wchar_t *);
 __attribute__((__cdecl__)) __attribute__((__nothrow__)) wchar_t * _wtempnam (const wchar_t *, const wchar_t *);
 __attribute__((__cdecl__)) __attribute__((__nothrow__)) int _wrename (const wchar_t *, const wchar_t *);
 __attribute__((__cdecl__)) __attribute__((__nothrow__)) int _wremove (const wchar_t *);
 __attribute__((__cdecl__)) __attribute__((__nothrow__)) void _wperror (const wchar_t *);
 __attribute__((__cdecl__)) __attribute__((__nothrow__)) FILE * _wpopen (const wchar_t *, const wchar_t *);






__attribute__((__cdecl__)) __attribute__((__nothrow__)) int snwprintf (wchar_t *, size_t, const wchar_t *, ...);
__attribute__((__cdecl__)) __attribute__((__nothrow__)) int vsnwprintf (wchar_t *, size_t, const wchar_t *, __builtin_va_list);
# 1099 "c:\\mingw\\include\\stdio.h" 3
__attribute__((__cdecl__)) __attribute__((__nothrow__)) int vwscanf (const wchar_t *__restrict__, __builtin_va_list);
__attribute__((__cdecl__)) __attribute__((__nothrow__))
int vfwscanf (FILE *__restrict__, const wchar_t *__restrict__, __builtin_va_list);
__attribute__((__cdecl__)) __attribute__((__nothrow__))
int vswscanf (const wchar_t *__restrict__, const wchar_t * __restrict__, __builtin_va_list);






 __attribute__((__cdecl__)) __attribute__((__nothrow__)) FILE * wpopen (const wchar_t *, const wchar_t *);




 __attribute__((__cdecl__)) __attribute__((__nothrow__)) wint_t _fgetwchar (void);
 __attribute__((__cdecl__)) __attribute__((__nothrow__)) wint_t _fputwchar (wint_t);
 __attribute__((__cdecl__)) __attribute__((__nothrow__)) int _getw (FILE *);
 __attribute__((__cdecl__)) __attribute__((__nothrow__)) int _putw (int, FILE *);




 __attribute__((__cdecl__)) __attribute__((__nothrow__)) wint_t fgetwchar (void);
 __attribute__((__cdecl__)) __attribute__((__nothrow__)) wint_t fputwchar (wint_t);
 __attribute__((__cdecl__)) __attribute__((__nothrow__)) int getw (FILE *);
 __attribute__((__cdecl__)) __attribute__((__nothrow__)) int putw (int, FILE *);





# 4 "./src/lib/src/Partie3.c" 2
# 1 "c:\\mingw\\include\\string.h" 1 3
# 34 "c:\\mingw\\include\\string.h" 3
       
# 35 "c:\\mingw\\include\\string.h" 3
# 53 "c:\\mingw\\include\\string.h" 3
# 1 "c:\\mingw\\lib\\gcc\\mingw32\\8.2.0\\include\\stddef.h" 1 3 4
# 54 "c:\\mingw\\include\\string.h" 2 3
# 62 "c:\\mingw\\include\\string.h" 3
# 1 "c:\\mingw\\include\\strings.h" 1 3
# 33 "c:\\mingw\\include\\strings.h" 3
       
# 34 "c:\\mingw\\include\\strings.h" 3
# 59 "c:\\mingw\\include\\strings.h" 3
# 1 "c:\\mingw\\lib\\gcc\\mingw32\\8.2.0\\include\\stddef.h" 1 3 4
# 60 "c:\\mingw\\include\\strings.h" 2 3



int __attribute__((__cdecl__)) __attribute__((__nothrow__)) strcasecmp( const char *, const char * );
int __attribute__((__cdecl__)) __attribute__((__nothrow__)) strncasecmp( const char *, const char *, size_t );
# 80 "c:\\mingw\\include\\strings.h" 3
 __attribute__((__cdecl__)) __attribute__((__nothrow__)) int _stricmp( const char *, const char * );
 __attribute__((__cdecl__)) __attribute__((__nothrow__)) int _strnicmp( const char *, const char *, size_t );
# 100 "c:\\mingw\\include\\strings.h" 3

# 63 "c:\\mingw\\include\\string.h" 2 3







 __attribute__((__cdecl__)) __attribute__((__nothrow__)) void *memchr (const void *, int, size_t) __attribute__((__pure__));
 __attribute__((__cdecl__)) __attribute__((__nothrow__)) int memcmp (const void *, const void *, size_t) __attribute__((__pure__));
 __attribute__((__cdecl__)) __attribute__((__nothrow__)) void *memcpy (void *, const void *, size_t);
 __attribute__((__cdecl__)) __attribute__((__nothrow__)) void *memmove (void *, const void *, size_t);
 __attribute__((__cdecl__)) __attribute__((__nothrow__)) void *memset (void *, int, size_t);
 __attribute__((__cdecl__)) __attribute__((__nothrow__)) char *strcat (char *, const char *);
 __attribute__((__cdecl__)) __attribute__((__nothrow__)) char *strchr (const char *, int) __attribute__((__pure__));
 __attribute__((__cdecl__)) __attribute__((__nothrow__)) int strcmp (const char *, const char *) __attribute__((__pure__));
 __attribute__((__cdecl__)) __attribute__((__nothrow__)) int strcoll (const char *, const char *);
 __attribute__((__cdecl__)) __attribute__((__nothrow__)) char *strcpy (char *, const char *);
 __attribute__((__cdecl__)) __attribute__((__nothrow__)) size_t strcspn (const char *, const char *) __attribute__((__pure__));
 __attribute__((__cdecl__)) __attribute__((__nothrow__)) char *strerror (int);

 __attribute__((__cdecl__)) __attribute__((__nothrow__)) size_t strlen (const char *) __attribute__((__pure__));
 __attribute__((__cdecl__)) __attribute__((__nothrow__)) char *strncat (char *, const char *, size_t);
 __attribute__((__cdecl__)) __attribute__((__nothrow__)) int strncmp (const char *, const char *, size_t) __attribute__((__pure__));
 __attribute__((__cdecl__)) __attribute__((__nothrow__)) char *strncpy (char *, const char *, size_t);
 __attribute__((__cdecl__)) __attribute__((__nothrow__)) char *strpbrk (const char *, const char *) __attribute__((__pure__));
 __attribute__((__cdecl__)) __attribute__((__nothrow__)) char *strrchr (const char *, int) __attribute__((__pure__));
 __attribute__((__cdecl__)) __attribute__((__nothrow__)) size_t strspn (const char *, const char *) __attribute__((__pure__));
 __attribute__((__cdecl__)) __attribute__((__nothrow__)) char *strstr (const char *, const char *) __attribute__((__pure__));
 __attribute__((__cdecl__)) __attribute__((__nothrow__)) char *strtok (char *, const char *);
 __attribute__((__cdecl__)) __attribute__((__nothrow__)) size_t strxfrm (char *, const char *, size_t);




 __attribute__((__cdecl__)) __attribute__((__nothrow__)) char *_strerror (const char *);
 __attribute__((__cdecl__)) __attribute__((__nothrow__)) void *_memccpy (void *, const void *, int, size_t);
 __attribute__((__cdecl__)) __attribute__((__nothrow__)) int _memicmp (const void *, const void *, size_t);
 __attribute__((__cdecl__)) __attribute__((__nothrow__)) char *_strdup (const char *) __attribute__((__malloc__));
 __attribute__((__cdecl__)) __attribute__((__nothrow__)) int _strcmpi (const char *, const char *);
 __attribute__((__cdecl__)) __attribute__((__nothrow__)) int _stricoll (const char *, const char *);
 __attribute__((__cdecl__)) __attribute__((__nothrow__)) char *_strlwr (char *);
 __attribute__((__cdecl__)) __attribute__((__nothrow__)) char *_strnset (char *, int, size_t);
 __attribute__((__cdecl__)) __attribute__((__nothrow__)) char *_strrev (char *);
 __attribute__((__cdecl__)) __attribute__((__nothrow__)) char *_strset (char *, int);
 __attribute__((__cdecl__)) __attribute__((__nothrow__)) char *_strupr (char *);
 __attribute__((__cdecl__)) __attribute__((__nothrow__)) void _swab (const char *, char *, size_t);
# 126 "c:\\mingw\\include\\string.h" 3
 __attribute__((__cdecl__)) __attribute__((__nothrow__)) int _strncoll(const char *, const char *, size_t);
 __attribute__((__cdecl__)) __attribute__((__nothrow__)) int _strnicoll(const char *, const char *, size_t);






 __attribute__((__cdecl__)) __attribute__((__nothrow__)) void *memccpy (void *, const void *, int, size_t);
 __attribute__((__cdecl__)) __attribute__((__nothrow__)) int memicmp (const void *, const void *, size_t);
 __attribute__((__cdecl__)) __attribute__((__nothrow__)) char *strdup (const char *) __attribute__((__malloc__));
 __attribute__((__cdecl__)) __attribute__((__nothrow__)) int strcmpi (const char *, const char *);
 __attribute__((__cdecl__)) __attribute__((__nothrow__)) int stricmp (const char *, const char *);
 __attribute__((__cdecl__)) __attribute__((__nothrow__)) int stricoll (const char *, const char *);
 __attribute__((__cdecl__)) __attribute__((__nothrow__)) char *strlwr (char *);
 __attribute__((__cdecl__)) __attribute__((__nothrow__)) int strnicmp (const char *, const char *, size_t);
 __attribute__((__cdecl__)) __attribute__((__nothrow__)) char *strnset (char *, int, size_t);
 __attribute__((__cdecl__)) __attribute__((__nothrow__)) char *strrev (char *);
 __attribute__((__cdecl__)) __attribute__((__nothrow__)) char *strset (char *, int);
 __attribute__((__cdecl__)) __attribute__((__nothrow__)) char *strupr (char *);





 __attribute__((__cdecl__)) __attribute__((__nothrow__)) void swab (const char *, char *, size_t);
# 170 "c:\\mingw\\include\\string.h" 3
# 1 "c:\\mingw\\include\\wchar.h" 1 3
# 35 "c:\\mingw\\include\\wchar.h" 3
       
# 36 "c:\\mingw\\include\\wchar.h" 3
# 409 "c:\\mingw\\include\\wchar.h" 3
 __attribute__((__cdecl__)) __attribute__((__nothrow__)) wchar_t *wcscat (wchar_t *, const wchar_t *);
 __attribute__((__cdecl__)) __attribute__((__nothrow__)) wchar_t *wcschr (const wchar_t *, wchar_t);
 __attribute__((__cdecl__)) __attribute__((__nothrow__)) int wcscmp (const wchar_t *, const wchar_t *);
 __attribute__((__cdecl__)) __attribute__((__nothrow__)) int wcscoll (const wchar_t *, const wchar_t *);
 __attribute__((__cdecl__)) __attribute__((__nothrow__)) wchar_t *wcscpy (wchar_t *, const wchar_t *);
 __attribute__((__cdecl__)) __attribute__((__nothrow__)) size_t wcscspn (const wchar_t *, const wchar_t *);
 __attribute__((__cdecl__)) __attribute__((__nothrow__)) size_t wcslen (const wchar_t *);
 __attribute__((__cdecl__)) __attribute__((__nothrow__)) wchar_t *wcsncat (wchar_t *, const wchar_t *, size_t);
 __attribute__((__cdecl__)) __attribute__((__nothrow__)) int wcsncmp (const wchar_t *, const wchar_t *, size_t);
 __attribute__((__cdecl__)) __attribute__((__nothrow__)) wchar_t *wcsncpy (wchar_t *, const wchar_t *, size_t);
 __attribute__((__cdecl__)) __attribute__((__nothrow__)) wchar_t *wcspbrk (const wchar_t *, const wchar_t *);
 __attribute__((__cdecl__)) __attribute__((__nothrow__)) wchar_t *wcsrchr (const wchar_t *, wchar_t);
 __attribute__((__cdecl__)) __attribute__((__nothrow__)) size_t wcsspn (const wchar_t *, const wchar_t *);
 __attribute__((__cdecl__)) __attribute__((__nothrow__)) wchar_t *wcsstr (const wchar_t *, const wchar_t *);
 __attribute__((__cdecl__)) __attribute__((__nothrow__)) wchar_t *wcstok (wchar_t *, const wchar_t *);
 __attribute__((__cdecl__)) __attribute__((__nothrow__)) size_t wcsxfrm (wchar_t *, const wchar_t *, size_t);




 __attribute__((__cdecl__)) __attribute__((__nothrow__)) wchar_t *_wcsdup (const wchar_t *);
 __attribute__((__cdecl__)) __attribute__((__nothrow__)) int _wcsicmp (const wchar_t *, const wchar_t *);
 __attribute__((__cdecl__)) __attribute__((__nothrow__)) int _wcsicoll (const wchar_t *, const wchar_t *);
 __attribute__((__cdecl__)) __attribute__((__nothrow__)) wchar_t *_wcslwr (wchar_t*);
 __attribute__((__cdecl__)) __attribute__((__nothrow__)) int _wcsnicmp (const wchar_t *, const wchar_t *, size_t);
 __attribute__((__cdecl__)) __attribute__((__nothrow__)) wchar_t *_wcsnset (wchar_t *, wchar_t, size_t);
 __attribute__((__cdecl__)) __attribute__((__nothrow__)) wchar_t *_wcsrev (wchar_t *);
 __attribute__((__cdecl__)) __attribute__((__nothrow__)) wchar_t *_wcsset (wchar_t *, wchar_t);
 __attribute__((__cdecl__)) __attribute__((__nothrow__)) wchar_t *_wcsupr (wchar_t *);


 __attribute__((__cdecl__)) __attribute__((__nothrow__)) int _wcsncoll (const wchar_t *, const wchar_t *, size_t);
 __attribute__((__cdecl__)) __attribute__((__nothrow__)) int _wcsnicoll (const wchar_t *, const wchar_t *, size_t);
# 462 "c:\\mingw\\include\\wchar.h" 3
int __attribute__((__cdecl__)) __attribute__((__nothrow__)) wcscmpi (const wchar_t *, const wchar_t *);
# 474 "c:\\mingw\\include\\wchar.h" 3
 __attribute__((__cdecl__)) __attribute__((__nothrow__)) wchar_t *wcsdup (const wchar_t *);
 __attribute__((__cdecl__)) __attribute__((__nothrow__)) int wcsicmp (const wchar_t *, const wchar_t *);
 __attribute__((__cdecl__)) __attribute__((__nothrow__)) int wcsicoll (const wchar_t *, const wchar_t *);
 __attribute__((__cdecl__)) __attribute__((__nothrow__)) wchar_t *wcslwr (wchar_t *);
 __attribute__((__cdecl__)) __attribute__((__nothrow__)) int wcsnicmp (const wchar_t *, const wchar_t *, size_t);
 __attribute__((__cdecl__)) __attribute__((__nothrow__)) wchar_t *wcsnset (wchar_t *, wchar_t, size_t);
 __attribute__((__cdecl__)) __attribute__((__nothrow__)) wchar_t *wcsrev (wchar_t *);
 __attribute__((__cdecl__)) __attribute__((__nothrow__)) wchar_t *wcsset (wchar_t *, wchar_t);
 __attribute__((__cdecl__)) __attribute__((__nothrow__)) wchar_t *wcsupr (wchar_t *);
# 508 "c:\\mingw\\include\\wchar.h" 3
extern size_t __mingw_wcsnlen (const wchar_t *, size_t);


extern inline __attribute__((__gnu_inline__)) __attribute__((__always_inline__)) size_t wcsnlen (const wchar_t *__text, size_t __maxlen)
{ return __mingw_wcsnlen (__text, __maxlen); }
# 171 "c:\\mingw\\include\\string.h" 2 3
# 193 "c:\\mingw\\include\\string.h" 3
extern size_t __mingw_strnlen (const char *, size_t);


extern inline __attribute__((__gnu_inline__)) __attribute__((__always_inline__)) size_t strnlen (const char *__text, size_t __maxlen)
{ return __mingw_strnlen (__text, __maxlen); }
# 210 "c:\\mingw\\include\\string.h" 3
extern char *strtok_r
(char *__restrict__, const char *__restrict__, char **__restrict__);
# 223 "c:\\mingw\\include\\string.h" 3
extern int strerror_r (int, char *, size_t);
# 247 "c:\\mingw\\include\\string.h" 3
extern inline __attribute__((__gnu_inline__)) __attribute__((__always_inline__)) int strerror_s (char *__buf, size_t __len, int __err)
{ return strerror_r (__err, __buf, __len); }





# 5 "./src/lib/src/Partie3.c" 2


# 6 "./src/lib/src/Partie3.c"
short int calculCarreNB(int start_x, int start_y, int size, short int **matrix){
    
# 7 "./src/lib/src/Partie3.c" 3 4
   _Bool 
# 7 "./src/lib/src/Partie3.c"
        isBlack = 
# 7 "./src/lib/src/Partie3.c" 3 4
                  0
# 7 "./src/lib/src/Partie3.c"
                       ;
    
# 8 "./src/lib/src/Partie3.c" 3 4
   _Bool 
# 8 "./src/lib/src/Partie3.c"
        isWhite = 
# 8 "./src/lib/src/Partie3.c" 3 4
                  0
# 8 "./src/lib/src/Partie3.c"
                       ;

    for(int x = start_x; x < size+start_x; x++){
        for(int y = start_y; y < size+start_y; y++){


            if(matrix[x][y] == 255){

                isWhite = 
# 16 "./src/lib/src/Partie3.c" 3 4
                         1
# 16 "./src/lib/src/Partie3.c"
                             ;


                if(isBlack){
                     return -1;
                }
            }


            else if(matrix[x][y] == 0){

                isBlack = 
# 27 "./src/lib/src/Partie3.c" 3 4
                         1
# 27 "./src/lib/src/Partie3.c"
                             ;

                if(isWhite){
                     return -1;
                }

            }

        }
    }

    if(isBlack)
        return 0;
    else
        return 255;
}







int etiquetteFeuilleNB(int val){
    if(val+20 < 256)
        return val+20;
    else
        return val+20 - 256;
}


noeudBinaire* creeArbreNB(int start_x, int start_y, int imgSideSize, short int **img){
    static int compteurEtiquettes = 0;
    static int compteurnoeud = 0;

    noeudBinaire *root = (noeudBinaire*) malloc(sizeof(noeudBinaire));
    root->size = imgSideSize;
    root->start_x = start_x;
    root->start_y = start_y;
    root->value = calculCarreNB(start_x,start_y,imgSideSize,img);

    switch (root->value)
    {

    case 255:
    case 0:
        root->NW = 
# 73 "./src/lib/src/Partie3.c" 3 4
                  ((void *)0)
# 73 "./src/lib/src/Partie3.c"
                      ;
        root->NE = 
# 74 "./src/lib/src/Partie3.c" 3 4
                  ((void *)0)
# 74 "./src/lib/src/Partie3.c"
                      ;
        root->SE = 
# 75 "./src/lib/src/Partie3.c" 3 4
                  ((void *)0)
# 75 "./src/lib/src/Partie3.c"
                      ;
        root->SW = 
# 76 "./src/lib/src/Partie3.c" 3 4
                  ((void *)0)
# 76 "./src/lib/src/Partie3.c"
                      ;
        root->etiquette = compteurEtiquettes;
        compteurEtiquettes = etiquetteFeuilleNB(compteurEtiquettes);

        break;


    case -1:
        root->etiquette = -1;
        compteurnoeud++;

        root->NW = creeArbreNB( start_x,
                                start_y+imgSideSize/2,
                                imgSideSize/2,
                                img);

        root->NE = creeArbreNB( start_x+imgSideSize/2,
                                start_y+imgSideSize/2,
                                imgSideSize/2,
                                img);

        root->SW = creeArbreNB( start_x,
                                start_y,
                                imgSideSize/2,
                                img);

        root->SE = creeArbreNB( start_x+imgSideSize/2,
                                start_y,
                                imgSideSize/2,
                                img);
        break;
    }

    return root;
}

int compteFeuille(noeudBinaire* racine)
{
    static int nbreEtiquettes = 0;
    if(racine)
    {
        if(racine->etiquette != -1)
        {
            nbreEtiquettes++;
        }
        compteFeuille(racine->NE);
        compteFeuille(racine->NW);
        compteFeuille(racine->SE);
        compteFeuille(racine->SW);
    }

    return nbreEtiquettes;
}

void creeImageArbreNB(Image* img, noeudBinaire* rcn, 
# 130 "./src/lib/src/Partie3.c" 3 4
                                                    _Bool 
# 130 "./src/lib/src/Partie3.c"
                                                         etiq){
    if(rcn != 
# 131 "./src/lib/src/Partie3.c" 3 4
             ((void *)0)
# 131 "./src/lib/src/Partie3.c"
                 ){

        if(rcn->value == -1){
            creeImageArbreNB(img,rcn->NW,etiq);
            creeImageArbreNB(img,rcn->NE,etiq);
            creeImageArbreNB(img,rcn->SW,etiq);
            creeImageArbreNB(img,rcn->SE,etiq);
        }
        else{
            for(int y = rcn->start_y; y < rcn->size +rcn->start_y ; y++){
                for(int x = rcn->start_x; x < rcn->size+rcn->start_x; x++){


                    img->gris[x][y] = (etiq)?rcn->etiquette:rcn->value;
                    img->rouge[x][y] = (etiq)?rcn->etiquette:rcn->value;
                    img->bleu[x][y] = (etiq)?rcn->etiquette:rcn->value;
                    img->vert[x][y] = (etiq)?rcn->etiquette:rcn->value;
                }
            }
        }
    }
}

void libereArbreBinaire(noeudBinaire *rcn)
{
    if(rcn)
    {
        libereArbreBinaire(rcn->NW);
        libereArbreBinaire(rcn->NE);
        libereArbreBinaire(rcn->SW);
        libereArbreBinaire(rcn->SE);
        free(rcn);
    }
}
